waveforms.vcd
$date
	Fri Dec 20 01:06:39 2024
$end

$version
	Synopsys VCS version U-2023.03-SP2-8
$end

$timescale
	1s
$end

$comment Csum: 1 3ee611369ccd6d9f $end


$scope module $unit $end
$upscope $end


$scope module top $end
$var reg 1 ! clk $end
$var reg 1 " rst $end

$scope begin unnamed$$_vcs_3 $end
$upscope $end


$scope begin unnamed$$_vcs_0 $end
$upscope $end


$scope begin unnamed$$_vcs_1 $end
$upscope $end


$scope begin unnamed$$_vcs_2 $end
$upscope $end


$scope module pif $end
$var reg 1 # aclk $end
$var reg 1 $ arst $end
$var reg 4 % awid [3:0] $end
$var reg 32 & awaddr [31:0] $end
$var reg 4 ' awlen [3:0] $end
$var reg 3 ( awsize [2:0] $end
$var reg 2 ) awburst [1:0] $end
$var reg 2 * awlock [1:0] $end
$var reg 4 + awcache [3:0] $end
$var reg 3 , awprot [2:0] $end
$var reg 1 - awqos $end
$var reg 1 . awregion $end
$var reg 1 / awvalid $end
$var reg 1 0 awready $end
$var reg 4 1 wid [3:0] $end
$var reg 32 2 wdata [31:0] $end
$var reg 4 3 wstrb [3:0] $end
$var reg 1 4 wlast $end
$var reg 1 5 wvalid $end
$var reg 1 6 wready $end
$var reg 4 7 bid [3:0] $end
$var reg 2 8 bresp [1:0] $end
$var reg 1 9 bvalid $end
$var reg 1 : bready $end
$var reg 4 ; arid [3:0] $end
$var reg 32 < araddr [31:0] $end
$var reg 4 = arlen [3:0] $end
$var reg 3 > arsize [2:0] $end
$var reg 2 ? arburst [1:0] $end
$var reg 2 @ arlock [1:0] $end
$var reg 4 A arcache [3:0] $end
$var reg 3 B arprot [2:0] $end
$var reg 1 C arqos $end
$var reg 1 D arregion $end
$var reg 1 E arvalid $end
$var reg 1 F arready $end
$var reg 4 G rid [3:0] $end
$var reg 32 H rdata [31:0] $end
$var reg 1 I rlast $end
$var reg 1 J rvalid $end
$var reg 1 K rready $end
$var reg 2 L rresp [1:0] $end
$upscope $end


$scope module axi_assertion_i $end
$upscope $end


$scope module dut $end
$var wire 1 M aclk $end
$var wire 1 N arst $end
$var wire 4 O awid [3:0] $end
$var wire 32 P awaddr [31:0] $end
$var wire 4 Q awlen [3:0] $end
$var wire 3 R awsize [2:0] $end
$var wire 2 S awburst [1:0] $end
$var wire 2 T awlock [1:0] $end
$var wire 4 U awcache [3:0] $end
$var wire 3 V awprot [2:0] $end
$var wire 1 W awqos $end
$var wire 1 X awregion $end
$var wire 1 Y awuser $end
$var wire 1 Z awvalid $end
$var reg 1 [ awready $end
$var wire 4 \ wid [3:0] $end
$var wire 32 ] wdata [31:0] $end
$var wire 4 ^ wstrb [3:0] $end
$var wire 1 _ wlast $end
$var wire 1 ` wvalid $end
$var reg 1 a wready $end
$var reg 4 b bid [3:0] $end
$var reg 2 c bresp [1:0] $end
$var reg 1 d bvalid $end
$var wire 1 e bready $end
$var wire 4 f arid [3:0] $end
$var wire 32 g araddr [31:0] $end
$var wire 4 h arlen [3:0] $end
$var wire 3 i arsize [2:0] $end
$var wire 2 j arburst [1:0] $end
$var wire 2 k arlock [1:0] $end
$var wire 4 l arcache [3:0] $end
$var wire 3 m arprot [2:0] $end
$var wire 1 n arqos $end
$var wire 1 o arregion $end
$var wire 1 p aruser $end
$var wire 1 q arvalid $end
$var reg 1 r arready $end
$var reg 4 s rid [3:0] $end
$var reg 32 t rdata [31:0] $end
$var reg 1 I rlast $end
$var reg 1 u ruser $end
$var reg 1 J rvalid $end
$var wire 1 v rready $end
$var reg 2 w rresp [1:0] $end
$upscope $end

$upscope $end

$enddefinitions $end

#0
$dumpvars
0!
1"
bxx L
bxxxxxxxxxxxxxxxxxxxxxxxxxxxxxxxx H
bxxxx G
bxxx B
bxxxx A
bxx @
bxx ?
bxxx >
bxxxx =
bxxxxxxxxxxxxxxxxxxxxxxxxxxxxxxxx <
bxxxx ;
bxx 8
bxxxx 7
bxxxx 3
bxxxxxxxxxxxxxxxxxxxxxxxxxxxxxxxx 2
bxxxx 1
bxxx ,
bxxxx +
bxx *
bxx )
bxxx (
bxxxx '
bxxxxxxxxxxxxxxxxxxxxxxxxxxxxxxxx &
bxxxx %
xr
x[
xd
xa
bxxxx b
bxx c
bxxxxxxxxxxxxxxxxxxxxxxxxxxxxxxxx t
bxxxx s
bxx w
bxxxx O
bxxxxxxxxxxxxxxxxxxxxxxxxxxxxxxxx P
bxxxx Q
bxxx R
bxx S
bxx T
bxxxx U
bxxx V
bxxxx \
bxxxxxxxxxxxxxxxxxxxxxxxxxxxxxxxx ]
bxxxx ^
bxxxx f
bxxxxxxxxxxxxxxxxxxxxxxxxxxxxxxxx g
bxxxx h
bxxx i
bxx j
bxx k
bxxxx l
bxxx m
zY
zp
0M
xn
xo
1N
xq
xW
xX
xZ
xe
xv
x_
x`
0#
1$
xC
xF
xD
xE
x-
x0
x.
x/
x:
x9
xK
x4
x6
x5
xI
xu
xJ
$end
#5
1!
1#
1M
0[
00
0a
06
0r
0F
0"
0$
0N
#10
0!
0#
0M
b1110 %
b1110 O
b11100001010010000011010110111011 &
b11100001010010000011010110111011 P
b1111 '
b1111 Q
b110 (
b110 R
b00 )
b00 S
b00 *
b00 T
b0001 +
b0001 U
b100 ,
b100 V
0-
0W
0.
0X
1/
1Z
#15
1!
1#
1M
1[
10
#20
0!
0#
0M
b0000 %
b0000 O
b00000000000000000000000000000000 &
b00000000000000000000000000000000 P
b0000 '
b0000 Q
b000 (
b000 R
b0000 +
b0000 U
b000 ,
b000 V
#25
1!
1#
1M
b01011110011001010110000111110011 2
b01011110011001010110000111110011 ]
b1110 1
b1110 \
b1111 3
b1111 ^
04
0_
15
1`
1a
16
#30
0!
0#
0M
#35
1!
1#
1M
b00100111100001000111111011010111 2
b00100111100001000111111011010111 ]
#40
0!
0#
0M
#45
1!
1#
1M
b11110110110011110101000100100000 2
b11110110110011110101000100100000 ]
#50
0!
0#
0M
#55
1!
1#
1M
b10010110000011011010110101000100 2
b10010110000011011010110101000100 ]
#60
0!
0#
0M
#65
1!
1#
1M
b11100010110100010000111011010011 2
b11100010110100010000111011010011 ]
#70
0!
0#
0M
#75
1!
1#
1M
b10100100110100011001000110100111 2
b10100100110100011001000110100111 ]
#80
0!
0#
0M
#85
1!
1#
1M
b11011011001000100111001100001100 2
b11011011001000100111001100001100 ]
#90
0!
0#
0M
#95
1!
1#
1M
b11001111000000011110010011100110 2
b11001111000000011110010011100110 ]
#100
0!
0#
0M
#105
1!
1#
1M
b00000100001011100000001111100111 2
b00000100001011100000001111100111 ]
#110
0!
0#
0M
#115
1!
1#
1M
b11001001110100101000011101010000 2
b11001001110100101000011101010000 ]
#120
0!
0#
0M
#125
1!
1#
1M
b00001111100001001100010001001111 2
b00001111100001001100010001001111 ]
#130
0!
0#
0M
#135
1!
1#
1M
b00011101011101101001011001011110 2
b00011101011101101001011001011110 ]
#140
0!
0#
0M
#145
1!
1#
1M
b01001001111010000111110100000111 2
b01001001111010000111110100000111 ]
#150
0!
0#
0M
#155
1!
1#
1M
b01011000101111001101011100000010 2
b01011000101111001101011100000010 ]
#160
0!
0#
0M
#165
1!
1#
1M
b10000110100101111010010000010000 2
b10000110100101111010010000010000 ]
#170
0!
0#
0M
#175
1!
1#
1M
b01000010111100111000110010000000 2
b01000010111100111000110010000000 ]
14
1_
1d
19
#180
0!
0#
0M
#185
1!
1#
1M
b00000000000000000000000000000000 2
b00000000000000000000000000000000 ]
b0000 1
b0000 \
b0000 3
b0000 ^
04
0_
05
0`
1:
1e
0a
06
#190
0!
0#
0M
#195
1!
1#
1M
0:
0e
#200
0!
0#
0M
b0110 %
b0110 O
b11111011000110111011001110110111 &
b11111011000110111011001110110111 P
b0001 '
b0001 Q
b010 (
b010 R
b10 )
b10 S
b01 *
b01 T
b0101 +
b0101 U
b110 ,
b110 V
#205
1!
1#
1M
b0000 %
b0000 O
b00000000000000000000000000000000 &
b00000000000000000000000000000000 P
b0000 '
b0000 Q
b000 (
b000 R
b00 )
b00 S
b00 *
b00 T
b0000 +
b0000 U
b000 ,
b000 V
#210
0!
0#
0M
#215
1!
1#
1M
b11010001110001001101110111000111 2
b11010001110001001101110111000111 ]
b0110 1
b0110 \
b1111 3
b1111 ^
15
1`
1a
16
#220
0!
0#
0M
#225
1!
1#
1M
b11110111100111111111110001110110 2
b11110111100111111111110001110110 ]
14
1_
#230
0!
0#
0M
#235
1!
1#
1M
b00000000000000000000000000000000 2
b00000000000000000000000000000000 ]
b0000 1
b0000 \
b0000 3
b0000 ^
04
0_
05
0`
1:
1e
0a
06
#240
0!
0#
0M
#245
1!
1#
1M
0:
0e
#250
0!
0#
0M
b1011 %
b1011 O
b01100010001100001101001101101110 &
b01100010001100001101001101101110 P
b0110 '
b0110 Q
b111 (
b111 R
b01 )
b01 S
b0101 +
b0101 U
b010 ,
b010 V
#255
1!
1#
1M
b0000 %
b0000 O
b00000000000000000000000000000000 &
b00000000000000000000000000000000 P
b0000 '
b0000 Q
b000 (
b000 R
b00 )
b00 S
b0000 +
b0000 U
b000 ,
b000 V
#260
0!
0#
0M
#265
1!
1#
1M
b01011111100011010101000010110000 2
b01011111100011010101000010110000 ]
b1011 1
b1011 \
b1111 3
b1111 ^
15
1`
1a
16
#270
0!
0#
0M
#275
1!
1#
1M
b00100000011100010000001100001111 2
b00100000011100010000001100001111 ]
#280
0!
0#
0M
#285
1!
1#
1M
b01010000001101011110111000101100 2
b01010000001101011110111000101100 ]
#290
0!
0#
0M
#295
1!
1#
1M
b01101101110001101101010000101010 2
b01101101110001101101010000101010 ]
#300
0!
0#
0M
#305
1!
1#
1M
b11111100011101101001001010010001 2
b11111100011101101001001010010001 ]
#310
0!
0#
0M
#315
1!
1#
1M
b01001101100111010001100000111010 2
b01001101100111010001100000111010 ]
#320
0!
0#
0M
#325
1!
1#
1M
b10101101101100100001100010001001 2
b10101101101100100001100010001001 ]
14
1_
#330
0!
0#
0M
#335
1!
1#
1M
b00000000000000000000000000000000 2
b00000000000000000000000000000000 ]
b0000 1
b0000 \
b0000 3
b0000 ^
04
0_
05
0`
1:
1e
0a
06
#340
0!
0#
0M
#345
1!
1#
1M
0:
0e
#350
0!
0#
0M
b01000100100101100101110110100001 &
b01000100100101100101110110100001 P
b0010 '
b0010 Q
b111 (
b111 R
b10 )
b10 S
b01 *
b01 T
b0110 +
b0110 U
b010 ,
b010 V
#355
1!
1#
1M
b00000000000000000000000000000000 &
b00000000000000000000000000000000 P
b0000 '
b0000 Q
b000 (
b000 R
b00 )
b00 S
b00 *
b00 T
b0000 +
b0000 U
b000 ,
b000 V
#360
0!
0#
0M
#365
1!
1#
1M
b11001111001010111000110110111000 2
b11001111001010111000110110111000 ]
b1111 3
b1111 ^
15
1`
1a
16
#370
0!
0#
0M
#375
1!
1#
1M
b10001100001001011001111100111001 2
b10001100001001011001111100111001 ]
#380
0!
0#
0M
#385
1!
1#
1M
b00010101111110101011000110011011 2
b00010101111110101011000110011011 ]
14
1_
#390
0!
0#
0M
#395
1!
1#
1M
b00000000000000000000000000000000 2
b00000000000000000000000000000000 ]
b0000 3
b0000 ^
04
0_
05
0`
1:
1e
0a
06
#400
0!
0#
0M
#405
1!
1#
1M
0:
0e
#410
0!
0#
0M
b0100 %
b0100 O
b10110011000000000000010101000001 &
b10110011000000000000010101000001 P
b0010 '
b0010 Q
b011 (
b011 R
b1010 +
b1010 U
b010 ,
b010 V
#415
1!
1#
1M
b0000 %
b0000 O
b00000000000000000000000000000000 &
b00000000000000000000000000000000 P
b0000 '
b0000 Q
b000 (
b000 R
b0000 +
b0000 U
b000 ,
b000 V
#420
0!
0#
0M
#425
1!
1#
1M
b10011100101100010110010001011111 2
b10011100101100010110010001011111 ]
b0100 1
b0100 \
b1111 3
b1111 ^
15
1`
1a
16
#430
0!
0#
0M
#435
1!
1#
1M
b01000110100101011100101000000001 2
b01000110100101011100101000000001 ]
#440
0!
0#
0M
#445
1!
1#
1M
b00001111000011100101000011011000 2
b00001111000011100101000011011000 ]
14
1_
#450
0!
0#
0M
#455
1!
1#
1M
b00000000000000000000000000000000 2
b00000000000000000000000000000000 ]
b0000 1
b0000 \
b0000 3
b0000 ^
04
0_
05
0`
1:
1e
0a
06
#460
0!
0#
0M
#465
1!
1#
1M
0:
0e
#470
0!
0#
0M
b0101 %
b0101 O
b10000011111001101100100110001101 &
b10000011111001101100100110001101 P
b111 (
b111 R
b10 )
b10 S
b0001 +
b0001 U
b100 ,
b100 V
#475
1!
1#
1M
b0000 %
b0000 O
b00000000000000000000000000000000 &
b00000000000000000000000000000000 P
b000 (
b000 R
b00 )
b00 S
b0000 +
b0000 U
b000 ,
b000 V
#480
0!
0#
0M
#485
1!
1#
1M
b11000001001101100001011011110111 2
b11000001001101100001011011110111 ]
b0101 1
b0101 \
b1111 3
b1111 ^
14
1_
15
1`
1a
16
#490
0!
0#
0M
#495
1!
1#
1M
b00000000000000000000000000000000 2
b00000000000000000000000000000000 ]
b0000 1
b0000 \
b0000 3
b0000 ^
04
0_
05
0`
1:
1e
0a
06
#500
0!
0#
0M
#505
1!
1#
1M
0:
0e
#510
0!
0#
0M
b0110 %
b0110 O
b00110110100011100011110000010010 &
b00110110100011100011110000010010 P
b0111 '
b0111 Q
b010 (
b010 R
b10 )
b10 S
b01 *
b01 T
b1101 +
b1101 U
b110 ,
b110 V
#515
1!
1#
1M
b0000 %
b0000 O
b00000000000000000000000000000000 &
b00000000000000000000000000000000 P
b0000 '
b0000 Q
b000 (
b000 R
b00 )
b00 S
b00 *
b00 T
b0000 +
b0000 U
b000 ,
b000 V
#520
0!
0#
0M
#525
1!
1#
1M
b11000111000011101110010000001110 2
b11000111000011101110010000001110 ]
b0110 1
b0110 \
b1111 3
b1111 ^
15
1`
1a
16
#530
0!
0#
0M
#535
1!
1#
1M
b11111111111001100010111011111010 2
b11111111111001100010111011111010 ]
#540
0!
0#
0M
#545
1!
1#
1M
b00101010111101010111010101011001 2
b00101010111101010111010101011001 ]
#550
0!
0#
0M
#555
1!
1#
1M
b00110101000000001001000111001111 2
b00110101000000001001000111001111 ]
#560
0!
0#
0M
#565
1!
1#
1M
b01011100000100110011010000101011 2
b01011100000100110011010000101011 ]
#570
0!
0#
0M
#575
1!
1#
1M
b01101101110000001110010010000101 2
b01101101110000001110010010000101 ]
#580
0!
0#
0M
#585
1!
1#
1M
b01001110100000100111101100010011 2
b01001110100000100111101100010011 ]
#590
0!
0#
0M
#595
1!
1#
1M
b01001000001011100000010110000001 2
b01001000001011100000010110000001 ]
14
1_
#600
0!
0#
0M
#605
1!
1#
1M
b00000000000000000000000000000000 2
b00000000000000000000000000000000 ]
b0000 1
b0000 \
b0000 3
b0000 ^
04
0_
05
0`
1:
1e
0a
06
#610
0!
0#
0M
#615
1!
1#
1M
0:
0e
#620
0!
0#
0M
b0001 %
b0001 O
b00000101011110011101010001110111 &
b00000101011110011101010001110111 P
b1001 '
b1001 Q
b101 (
b101 R
b10 )
b10 S
b1110 +
b1110 U
b110 ,
b110 V
#625
1!
1#
1M
b0000 %
b0000 O
b00000000000000000000000000000000 &
b00000000000000000000000000000000 P
b0000 '
b0000 Q
b000 (
b000 R
b00 )
b00 S
b0000 +
b0000 U
b000 ,
b000 V
#630
0!
0#
0M
#635
1!
1#
1M
b00111001011100011011010001100101 2
b00111001011100011011010001100101 ]
b0001 1
b0001 \
b1111 3
b1111 ^
15
1`
1a
16
#640
0!
0#
0M
#645
1!
1#
1M
b11101111011001100001111100000110 2
b11101111011001100001111100000110 ]
#650
0!
0#
0M
#655
1!
1#
1M
b10011100010101010011010100100011 2
b10011100010101010011010100100011 ]
#660
0!
0#
0M
#665
1!
1#
1M
b11000011100011110001001001100100 2
b11000011100011110001001001100100 ]
#670
0!
0#
0M
#675
1!
1#
1M
b01010111110101111100101000100000 2
b01010111110101111100101000100000 ]
#680
0!
0#
0M
#685
1!
1#
1M
b10100001000001000001010111110000 2
b10100001000001000001010111110000 ]
#690
0!
0#
0M
#695
1!
1#
1M
b00010100011110100000000010101010 2
b00010100011110100000000010101010 ]
#700
0!
0#
0M
#705
1!
1#
1M
b00100001010001001011000011010110 2
b00100001010001001011000011010110 ]
#710
0!
0#
0M
#715
1!
1#
1M
b00000111000001011000110000001110 2
b00000111000001011000110000001110 ]
#720
0!
0#
0M
#725
1!
1#
1M
b01100010101111010111010101011011 2
b01100010101111010111010101011011 ]
14
1_
#730
0!
0#
0M
#735
1!
1#
1M
b00000000000000000000000000000000 2
b00000000000000000000000000000000 ]
b0000 1
b0000 \
b0000 3
b0000 ^
04
0_
05
0`
1:
1e
0a
06
#740
0!
0#
0M
#745
1!
1#
1M
0:
0e
#750
0!
0#
0M
b0111 %
b0111 O
b01000001001110011111110100111110 &
b01000001001110011111110100111110 P
b1100 '
b1100 Q
b100 (
b100 R
b01 *
b01 T
b0001 +
b0001 U
#755
1!
1#
1M
b0000 %
b0000 O
b00000000000000000000000000000000 &
b00000000000000000000000000000000 P
b0000 '
b0000 Q
b000 (
b000 R
b00 *
b00 T
b0000 +
b0000 U
#760
0!
0#
0M
#765
1!
1#
1M
b01001000010110011010001000111011 2
b01001000010110011010001000111011 ]
b0111 1
b0111 \
b1111 3
b1111 ^
15
1`
1a
16
#770
0!
0#
0M
#775
1!
1#
1M
b10001111001110100001100111011010 2
b10001111001110100001100111011010 ]
#780
0!
0#
0M
#785
1!
1#
1M
b11100101100001111010001101000011 2
b11100101100001111010001101000011 ]
#790
0!
0#
0M
#795
1!
1#
1M
b00101111111000110000000011100000 2
b00101111111000110000000011100000 ]
#800
0!
0#
0M
#805
1!
1#
1M
b00001101011010110100100011010010 2
b00001101011010110100100011010010 ]
#810
0!
0#
0M
#815
1!
1#
1M
b10010001011101010110111000010101 2
b10010001011101010110111000010101 ]
#820
0!
0#
0M
#825
1!
1#
1M
b00100001001010000010111110010001 2
b00100001001010000010111110010001 ]
#830
0!
0#
0M
#835
1!
1#
1M
b01001101010000110001011001110110 2
b01001101010000110001011001110110 ]
#840
0!
0#
0M
#845
1!
1#
1M
b01000010000000101111100000101010 2
b01000010000000101111100000101010 ]
#850
0!
0#
0M
#855
1!
1#
1M
b10001000000000100000101101100001 2
b10001000000000100000101101100001 ]
#860
0!
0#
0M
#865
1!
1#
1M
b11100011011111111111010010010101 2
b11100011011111111111010010010101 ]
#870
0!
0#
0M
#875
1!
1#
1M
b00000110000110111010011010101010 2
b00000110000110111010011010101010 ]
#880
0!
0#
0M
#885
1!
1#
1M
b01011000011110001001100101101100 2
b01011000011110001001100101101100 ]
14
1_
#890
0!
0#
0M
#895
1!
1#
1M
b00000000000000000000000000000000 2
b00000000000000000000000000000000 ]
b0000 1
b0000 \
b0000 3
b0000 ^
04
0_
05
0`
1:
1e
0a
06
#900
0!
0#
0M
#905
1!
1#
1M
0:
0e
#910
0!
0#
0M
b0110 %
b0110 O
b11001100101111000000100100010111 &
b11001100101111000000100100010111 P
b1111 '
b1111 Q
b010 (
b010 R
b1011 +
b1011 U
b110 ,
b110 V
#915
1!
1#
1M
b0000 %
b0000 O
b00000000000000000000000000000000 &
b00000000000000000000000000000000 P
b0000 '
b0000 Q
b000 (
b000 R
b0000 +
b0000 U
b000 ,
b000 V
#920
0!
0#
0M
#925
1!
1#
1M
b00001111010110110111101110000110 2
b00001111010110110111101110000110 ]
b0110 1
b0110 \
b1111 3
b1111 ^
15
1`
1a
16
#930
0!
0#
0M
#935
1!
1#
1M
b10111011101111011101101011001100 2
b10111011101111011101101011001100 ]
#940
0!
0#
0M
#945
1!
1#
1M
b10111001101110010111010111100010 2
b10111001101110010111010111100010 ]
#950
0!
0#
0M
#955
1!
1#
1M
b10110101111101011101011011110010 2
b10110101111101011101011011110010 ]
#960
0!
0#
0M
#965
1!
1#
1M
b11111001000111110000010101010110 2
b11111001000111110000010101010110 ]
#970
0!
0#
0M
#975
1!
1#
1M
b10101010111010001011100100011010 2
b10101010111010001011100100011010 ]
#980
0!
0#
0M
#985
1!
1#
1M
b00001100101100101101000001000101 2
b00001100101100101101000001000101 ]
#990
0!
0#
0M
#995
1!
1#
1M
b01001110110110100111101000011100 2
b01001110110110100111101000011100 ]
