waveforms.vcd
$date
	Wed Jan 29 16:20:46 2025
$end

$version
	Synopsys VCS version U-2023.03-SP2-8
$end

$timescale
	1s
$end

$comment Csum: 1 a07501f5fadfbe41 $end


$scope module $unit $end
$upscope $end


$scope module top $end
$var reg 1 ! clk $end
$var reg 1 " rst $end

$scope begin unnamed$$_vcs_3 $end
$upscope $end


$scope begin unnamed$$_vcs_0 $end
$upscope $end


$scope begin unnamed$$_vcs_1 $end
$upscope $end


$scope begin unnamed$$_vcs_2 $end
$upscope $end


$scope module pif $end
$var reg 1 # aclk $end
$var reg 1 $ arst $end
$var reg 4 % awid [3:0] $end
$var reg 32 & awaddr [31:0] $end
$var reg 4 ' awlen [3:0] $end
$var reg 3 ( awsize [2:0] $end
$var reg 2 ) awburst [1:0] $end
$var reg 2 * awlock [1:0] $end
$var reg 4 + awcache [3:0] $end
$var reg 3 , awprot [2:0] $end
$var reg 1 - awqos $end
$var reg 1 . awregion $end
$var reg 1 / awvalid $end
$var reg 1 0 awready $end
$var reg 4 1 wid [3:0] $end
$var reg 32 2 wdata [31:0] $end
$var reg 4 3 wstrb [3:0] $end
$var reg 1 4 wlast $end
$var reg 1 5 wvalid $end
$var reg 1 6 wready $end
$var reg 4 7 bid [3:0] $end
$var reg 2 8 bresp [1:0] $end
$var reg 1 9 bvalid $end
$var reg 1 : bready $end
$var reg 4 ; arid [3:0] $end
$var reg 32 < araddr [31:0] $end
$var reg 4 = arlen [3:0] $end
$var reg 3 > arsize [2:0] $end
$var reg 2 ? arburst [1:0] $end
$var reg 2 @ arlock [1:0] $end
$var reg 4 A arcache [3:0] $end
$var reg 3 B arprot [2:0] $end
$var reg 1 C arqos $end
$var reg 1 D arregion $end
$var reg 1 E arvalid $end
$var reg 1 F arready $end
$var reg 4 G rid [3:0] $end
$var reg 32 H rdata [31:0] $end
$var reg 1 I rlast $end
$var reg 1 J rvalid $end
$var reg 1 K rready $end
$var reg 2 L rresp [1:0] $end
$upscope $end


$scope module axi_assertion_i $end
$upscope $end


$scope module dut $end
$var wire 1 M aclk $end
$var wire 1 N arst $end
$var wire 4 O awid [3:0] $end
$var wire 32 P awaddr [31:0] $end
$var wire 4 Q awlen [3:0] $end
$var wire 3 R awsize [2:0] $end
$var wire 2 S awburst [1:0] $end
$var wire 2 T awlock [1:0] $end
$var wire 4 U awcache [3:0] $end
$var wire 3 V awprot [2:0] $end
$var wire 1 W awqos $end
$var wire 1 X awregion $end
$var wire 1 Y awvalid $end
$var reg 1 Z awready $end
$var wire 4 [ wid [3:0] $end
$var wire 32 \ wdata [31:0] $end
$var wire 4 ] wstrb [3:0] $end
$var wire 1 ^ wlast $end
$var wire 1 _ wvalid $end
$var reg 1 ` wready $end
$var reg 4 a bid [3:0] $end
$var reg 2 b bresp [1:0] $end
$var reg 1 c bvalid $end
$var wire 1 d bready $end
$var wire 4 e arid [3:0] $end
$var wire 32 f araddr [31:0] $end
$var wire 4 g arlen [3:0] $end
$var wire 3 h arsize [2:0] $end
$var wire 2 i arburst [1:0] $end
$var wire 2 j arlock [1:0] $end
$var wire 4 k arcache [3:0] $end
$var wire 3 l arprot [2:0] $end
$var wire 1 m arqos $end
$var wire 1 n arregion $end
$var wire 1 o arvalid $end
$var reg 1 p arready $end
$var reg 4 q rid [3:0] $end
$var reg 32 r rdata [31:0] $end
$var reg 1 s rlast $end
$var reg 1 t rvalid $end
$var wire 1 u rready $end
$var reg 2 v rresp [1:0] $end
$var reg 4 w awid_t [3:0] $end
$var reg 32 x awaddr_t [31:0] $end
$var reg 4 y awlen_t [3:0] $end
$var reg 3 z awsize_t [2:0] $end
$var reg 2 { awburst_t [1:0] $end
$var reg 2 | awlock_t [1:0] $end
$var reg 4 } awcache_t [3:0] $end
$var reg 3 ~ awprot_t [2:0] $end
$var reg 4 "! arid_t [3:0] $end
$var reg 32 "" araddr_t [31:0] $end
$var reg 4 "# arlen_t [3:0] $end
$var reg 3 "$ arsize_t [2:0] $end
$var reg 2 "% arburst_t [1:0] $end
$var reg 2 "& arlock_t [1:0] $end
$var reg 4 "' arcache_t [3:0] $end
$var reg 3 "( arprot_t [2:0] $end
$var integer 32 ") write_count $end

$scope begin unnamed$$_vcs_0 $end
$upscope $end

$upscope $end

$upscope $end

$enddefinitions $end

#0
$dumpvars
0!
1"
bxx L
bxxxxxxxxxxxxxxxxxxxxxxxxxxxxxxxx H
bxxxx G
bxxx B
bxxxx A
bxx @
bxx ?
bxxx >
bxxxx =
bxxxxxxxxxxxxxxxxxxxxxxxxxxxxxxxx <
bxxxx ;
bxx 8
bxxxx 7
bxxxx 3
bxxxxxxxxxxxxxxxxxxxxxxxxxxxxxxxx 2
bxxxx 1
bxxx ,
bxxxx +
bxx *
bxx )
bxxx (
bxxxx '
bxxxxxxxxxxxxxxxxxxxxxxxxxxxxxxxx &
bxxxx %
xp
xZ
xc
xs
xt
x`
bxxxxxxxxxxxxxxxxxxxxxxxxxxxxxxxx ""
bxx "%
bxxxx "'
bxxxx "!
bxxxx "#
bxx "&
bxxx "(
bxxx "$
bxxxxxxxxxxxxxxxxxxxxxxxxxxxxxxxx x
bxx {
bxxxx }
bxxxx w
bxxxx y
bxx |
bxxx ~
bxxx z
bxxxx a
bxx b
bxxxxxxxxxxxxxxxxxxxxxxxxxxxxxxxx r
bxxxx q
bxx v
bxxxxxxxxxxxxxxxxxxxxxxxxxxxxxxxx ")
bxxxx O
bxxxxxxxxxxxxxxxxxxxxxxxxxxxxxxxx P
bxxxx Q
bxxx R
bxx S
bxx T
bxxxx U
bxxx V
bxxxx [
bxxxxxxxxxxxxxxxxxxxxxxxxxxxxxxxx \
bxxxx ]
bxxxx e
bxxxxxxxxxxxxxxxxxxxxxxxxxxxxxxxx f
bxxxx g
bxxx h
bxx i
bxx j
bxxxx k
bxxx l
0M
xm
xn
1N
xo
xW
xX
xY
xd
xu
x^
x_
0#
1$
xC
xF
xD
xE
x-
x0
x.
x/
x:
x9
xI
xK
xJ
x4
x6
x5
$end
#5
1!
1#
1M
0p
0F
0`
06
0Z
00
b0000 q
b0000 G
b00000000000000000000000000000000 r
b00000000000000000000000000000000 H
0s
0I
0t
0J
b0000 a
b0000 7
b00 b
b00 8
0c
09
b00 v
b00 L
0"
0$
0N
b0010 %
b11100001010010000011010110111011 &
b1100 '
b010 (
b01 )
b00 *
b0000 +
b000 ,
0-
0W
0.
0X
1/
1Y
b0010 O
b11100001010010000011010110111011 P
b1100 Q
b010 R
b01 S
b00 T
b0000 U
b000 V
#10
0!
0#
0M
#15
1!
1#
1M
1Z
10
b11100001010010000011010110111011 x
b1100 y
b010 z
b01 {
b0010 w
b00 |
b000 ~
b0000 }
#20
0!
0#
0M
#25
1!
1#
1M
0/
0Y
b0000 %
b00000000000000000000000000000000 &
b0000 '
b000 (
b00 )
b0000 O
b00000000000000000000000000000000 P
b0000 Q
b000 R
b00 S
#30
0!
0#
0M
#35
1!
1#
1M
0Z
00
b01011110011001010110000111110011 2
b0010 1
b1111 3
04
0^
15
1_
b01011110011001010110000111110011 \
b0010 [
b1111 ]
#40
0!
0#
0M
#45
1!
1#
1M
1`
16
b11100001010010000011010110111111 x
#50
0!
0#
0M
#55
1!
1#
1M
b11100001010010000011010111000011 x
b00100111100001000111111011010111 2
b00100111100001000111111011010111 \
#60
0!
0#
0M
#65
1!
1#
1M
b11100001010010000011010111000111 x
b11110110110011110101000100100000 2
b11110110110011110101000100100000 \
#70
0!
0#
0M
#75
1!
1#
1M
b11100001010010000011010111001011 x
b10010110000011011010110101000100 2
b10010110000011011010110101000100 \
#80
0!
0#
0M
#85
1!
1#
1M
b11100001010010000011010111001111 x
b11100010110100010000111011010011 2
b11100010110100010000111011010011 \
#90
0!
0#
0M
#95
1!
1#
1M
b11100001010010000011010111010011 x
b10100100110100011001000110100111 2
b10100100110100011001000110100111 \
#100
0!
0#
0M
#105
1!
1#
1M
b11100001010010000011010111010111 x
b11011011001000100111001100001100 2
b11011011001000100111001100001100 \
#110
0!
0#
0M
#115
1!
1#
1M
b11100001010010000011010111011011 x
b11001111000000011110010011100110 2
b11001111000000011110010011100110 \
#120
0!
0#
0M
#125
1!
1#
1M
b11100001010010000011010111011111 x
b00000100001011100000001111100111 2
b00000100001011100000001111100111 \
#130
0!
0#
0M
#135
1!
1#
1M
b11100001010010000011010111100011 x
b11001001110100101000011101010000 2
b11001001110100101000011101010000 \
#140
0!
0#
0M
#145
1!
1#
1M
b11100001010010000011010111100111 x
b00001111100001001100010001001111 2
b00001111100001001100010001001111 \
#150
0!
0#
0M
#155
1!
1#
1M
b11100001010010000011010111101011 x
b00011101011101101001011001011110 2
b00011101011101101001011001011110 \
#160
0!
0#
0M
#165
1!
1#
1M
b11100001010010000011010111101111 x
b01001001111010000111110100000111 2
14
1^
b01001001111010000111110100000111 \
#170
0!
0#
0M
#175
1!
1#
1M
b11100001010010000011010111110011 x
b00000000000000000000000000000000 2
b0000 1
b0000 3
04
0^
05
0_
b00000000000000000000000000000000 \
b0000 [
b0000 ]
#180
0!
0#
0M
#185
1!
1#
1M
1c
19
b0010 a
b0010 7
#190
0!
0#
0M
#195
1!
1#
1M
1:
1d
#200
0!
0#
0M
#205
1!
1#
1M
0c
09
0:
0d
#210
0!
0#
0M
#215
1!
1#
1M
0`
06
b1000 %
b01100010001100001101001101101110 &
b1011 '
b010 (
b01 )
1/
1Y
b1000 O
b01100010001100001101001101101110 P
b1011 Q
b010 R
b01 S
#220
0!
0#
0M
#225
1!
1#
1M
1Z
10
b01100010001100001101001101101110 x
b1011 y
b1000 w
#230
0!
0#
0M
#235
1!
1#
1M
0/
0Y
b0000 %
b00000000000000000000000000000000 &
b0000 '
b000 (
b00 )
b0000 O
b00000000000000000000000000000000 P
b0000 Q
b000 R
b00 S
#240
0!
0#
0M
#245
1!
1#
1M
0Z
00
b01011111100011010101000010110000 2
b1000 1
b1111 3
15
1_
b01011111100011010101000010110000 \
b1000 [
b1111 ]
#250
0!
0#
0M
#255
1!
1#
1M
1`
16
b01100010001100001101001101110010 x
#260
0!
0#
0M
#265
1!
1#
1M
b01100010001100001101001101110110 x
b00100000011100010000001100001111 2
b00100000011100010000001100001111 \
#270
0!
0#
0M
#275
1!
1#
1M
b01100010001100001101001101111010 x
b01010000001101011110111000101100 2
b01010000001101011110111000101100 \
#280
0!
0#
0M
#285
1!
1#
1M
b01100010001100001101001101111110 x
b01101101110001101101010000101010 2
b01101101110001101101010000101010 \
#290
0!
0#
0M
#295
1!
1#
1M
b01100010001100001101001110000010 x
b11111100011101101001001010010001 2
b11111100011101101001001010010001 \
#300
0!
0#
0M
#305
1!
1#
1M
b01100010001100001101001110000110 x
b01001101100111010001100000111010 2
b01001101100111010001100000111010 \
#310
0!
0#
0M
#315
1!
1#
1M
b01100010001100001101001110001010 x
b10101101101100100001100010001001 2
b10101101101100100001100010001001 \
#320
0!
0#
0M
#325
1!
1#
1M
b01100010001100001101001110001110 x
b11110001011000100110011111100111 2
b11110001011000100110011111100111 \
#330
0!
0#
0M
#335
1!
1#
1M
b01100010001100001101001110010010 x
b00010110100000000010000110001011 2
b00010110100000000010000110001011 \
#340
0!
0#
0M
#345
1!
1#
1M
b01100010001100001101001110010110 x
b00010010101001001011110101111010 2
b00010010101001001011110101111010 \
#350
0!
0#
0M
#355
1!
1#
1M
b01100010001100001101001110011010 x
b01110111011010110010111100100101 2
b01110111011010110010111100100101 \
#360
0!
0#
0M
#365
1!
1#
1M
b01100010001100001101001110011110 x
b00011100011010110010111010111100 2
14
1^
b00011100011010110010111010111100 \
#370
0!
0#
0M
#375
1!
1#
1M
b01100010001100001101001110100010 x
b00000000000000000000000000000000 2
b0000 1
b0000 3
04
0^
05
0_
b00000000000000000000000000000000 \
b0000 [
b0000 ]
#380
0!
0#
0M
#385
1!
1#
1M
1c
19
b1000 a
b1000 7
#390
0!
0#
0M
#395
1!
1#
1M
1:
1d
#400
0!
0#
0M
#405
1!
1#
1M
0c
09
0:
0d
#410
0!
0#
0M
#415
1!
1#
1M
0`
06
b0101 %
b10110011000000000000010101000001 &
b1101 '
b010 (
b01 )
1/
1Y
b0101 O
b10110011000000000000010101000001 P
b1101 Q
b010 R
b01 S
#420
0!
0#
0M
#425
1!
1#
1M
1Z
10
b10110011000000000000010101000001 x
b1101 y
b0101 w
#430
0!
0#
0M
#435
1!
1#
1M
0/
0Y
b0000 %
b00000000000000000000000000000000 &
b0000 '
b000 (
b00 )
b0000 O
b00000000000000000000000000000000 P
b0000 Q
b000 R
b00 S
#440
0!
0#
0M
#445
1!
1#
1M
0Z
00
b10011100101100010110010001011111 2
b0101 1
b1111 3
15
1_
b10011100101100010110010001011111 \
b0101 [
b1111 ]
#450
0!
0#
0M
#455
1!
1#
1M
1`
16
b10110011000000000000010101000101 x
#460
0!
0#
0M
#465
1!
1#
1M
b10110011000000000000010101001001 x
b01000110100101011100101000000001 2
b01000110100101011100101000000001 \
#470
0!
0#
0M
#475
1!
1#
1M
b10110011000000000000010101001101 x
b00001111000011100101000011011000 2
b00001111000011100101000011011000 \
#480
0!
0#
0M
#485
1!
1#
1M
b10110011000000000000010101010001 x
b01110001010111000101101101110011 2
b01110001010111000101101101110011 \
#490
0!
0#
0M
#495
1!
1#
1M
b10110011000000000000010101010101 x
b01110001010100011110101111110100 2
b01110001010100011110101111110100 \
#500
0!
0#
0M
#505
1!
1#
1M
b10110011000000000000010101011001 x
b10010111011111010100100101000010 2
b10010111011111010100100101000010 \
#510
0!
0#
0M
#515
1!
1#
1M
b10110011000000000000010101011101 x
b11000000101010111101111111001010 2
b11000000101010111101111111001010 \
#520
0!
0#
0M
#525
1!
1#
1M
b10110011000000000000010101100001 x
b01001010011110100000111001110111 2
b01001010011110100000111001110111 \
#530
0!
0#
0M
#535
1!
1#
1M
b10110011000000000000010101100101 x
b11100001111011110011101100110100 2
b11100001111011110011101100110100 \
#540
0!
0#
0M
#545
1!
1#
1M
b10110011000000000000010101101001 x
b00001111010010010010010110100010 2
b00001111010010010010010110100010 \
#550
0!
0#
0M
#555
1!
1#
1M
b10110011000000000000010101101101 x
b11000000101011010100100110101101 2
b11000000101011010100100110101101 \
#560
0!
0#
0M
#565
1!
1#
1M
b10110011000000000000010101110001 x
b00011000111000100111100001110101 2
b00011000111000100111100001110101 \
#570
0!
0#
0M
#575
1!
1#
1M
b10110011000000000000010101110101 x
b00010111100100100111111100111011 2
b00010111100100100111111100111011 \
#580
0!
0#
0M
#585
1!
1#
1M
b10110011000000000000010101111001 x
b11111000111010000010111001101001 2
14
1^
b11111000111010000010111001101001 \
#590
0!
0#
0M
#595
1!
1#
1M
b10110011000000000000010101111101 x
b00000000000000000000000000000000 2
b0000 1
b0000 3
04
0^
05
0_
b00000000000000000000000000000000 \
b0000 [
b0000 ]
#600
0!
0#
0M
#605
1!
1#
1M
1c
19
b0101 a
b0101 7
#610
0!
0#
0M
#615
1!
1#
1M
1:
1d
#620
0!
0#
0M
#625
1!
1#
1M
0c
09
0:
0d
#630
0!
0#
0M
#635
1!
1#
1M
0`
06
b0010 %
b00110110100011100011110000010010 &
b1110 '
b010 (
b01 )
1/
1Y
b0010 O
b00110110100011100011110000010010 P
b1110 Q
b010 R
b01 S
#640
0!
0#
0M
#645
1!
1#
1M
1Z
10
b00110110100011100011110000010010 x
b1110 y
b0010 w
#650
0!
0#
0M
#655
1!
1#
1M
0/
0Y
b0000 %
b00000000000000000000000000000000 &
b0000 '
b000 (
b00 )
b0000 O
b00000000000000000000000000000000 P
b0000 Q
b000 R
b00 S
#660
0!
0#
0M
#665
1!
1#
1M
0Z
00
b11000111000011101110010000001110 2
b0010 1
b1111 3
15
1_
b11000111000011101110010000001110 \
b0010 [
b1111 ]
#670
0!
0#
0M
#675
1!
1#
1M
1`
16
b00110110100011100011110000010110 x
#680
0!
0#
0M
#685
1!
1#
1M
b00110110100011100011110000011010 x
b11111111111001100010111011111010 2
b11111111111001100010111011111010 \
#690
0!
0#
0M
#695
1!
1#
1M
b00110110100011100011110000011110 x
b00101010111101010111010101011001 2
b00101010111101010111010101011001 \
#700
0!
0#
0M
#705
1!
1#
1M
b00110110100011100011110000100010 x
b00110101000000001001000111001111 2
b00110101000000001001000111001111 \
#710
0!
0#
0M
#715
1!
1#
1M
b00110110100011100011110000100110 x
b01011100000100110011010000101011 2
b01011100000100110011010000101011 \
#720
0!
0#
0M
#725
1!
1#
1M
b00110110100011100011110000101010 x
b01101101110000001110010010000101 2
b01101101110000001110010010000101 \
#730
0!
0#
0M
#735
1!
1#
1M
b00110110100011100011110000101110 x
b01001110100000100111101100010011 2
b01001110100000100111101100010011 \
#740
0!
0#
0M
#745
1!
1#
1M
b00110110100011100011110000110010 x
b01001000001011100000010110000001 2
b01001000001011100000010110000001 \
#750
0!
0#
0M
#755
1!
1#
1M
b00110110100011100011110000110110 x
b11111101001001000001111110001010 2
b11111101001001000001111110001010 \
#760
0!
0#
0M
#765
1!
1#
1M
b00110110100011100011110000111010 x
b00100010101000000101011110000110 2
b00100010101000000101011110000110 \
#770
0!
0#
0M
#775
1!
1#
1M
b00110110100011100011110000111110 x
b00001101100101010110001100101110 2
b00001101100101010110001100101110 \
#780
0!
0#
0M
#785
1!
1#
1M
b00110110100011100011110001000010 x
b11001110110110000100100001001101 2
b11001110110110000100100001001101 \
#790
0!
0#
0M
#795
1!
1#
1M
b00110110100011100011110001000110 x
b10010110101110100011001011001011 2
b10010110101110100011001011001011 \
#800
0!
0#
0M
#805
1!
1#
1M
b00110110100011100011110001001010 x
b01111011111011011000000011001101 2
b01111011111011011000000011001101 \
#810
0!
0#
0M
#815
1!
1#
1M
b00110110100011100011110001001110 x
b01011000110110110011011111101111 2
14
1^
b01011000110110110011011111101111 \
#820
0!
0#
0M
#825
1!
1#
1M
b00110110100011100011110001010010 x
b00000000000000000000000000000000 2
b0000 1
b0000 3
04
0^
05
0_
b00000000000000000000000000000000 \
b0000 [
b0000 ]
#830
0!
0#
0M
#835
1!
1#
1M
1c
19
b0010 a
b0010 7
#840
0!
0#
0M
#845
1!
1#
1M
1:
1d
#850
0!
0#
0M
#855
1!
1#
1M
0c
09
0:
0d
#860
0!
0#
0M
#865
1!
1#
1M
0`
06
b0100 %
b01000001001110011111110100111110 &
b1100 '
b010 (
b01 )
1/
1Y
b0100 O
b01000001001110011111110100111110 P
b1100 Q
b010 R
b01 S
#870
0!
0#
0M
#875
1!
1#
1M
1Z
10
b01000001001110011111110100111110 x
b1100 y
b0100 w
#880
0!
0#
0M
#885
1!
1#
1M
0/
0Y
b0000 %
b00000000000000000000000000000000 &
b0000 '
b000 (
b00 )
b0000 O
b00000000000000000000000000000000 P
b0000 Q
b000 R
b00 S
#890
0!
0#
0M
#895
1!
1#
1M
0Z
00
b01001000010110011010001000111011 2
b0100 1
b1111 3
15
1_
b01001000010110011010001000111011 \
b0100 [
b1111 ]
#900
0!
0#
0M
#905
1!
1#
1M
1`
16
b01000001001110011111110101000010 x
#910
0!
0#
0M
#915
1!
1#
1M
b01000001001110011111110101000110 x
b10001111001110100001100111011010 2
b10001111001110100001100111011010 \
#920
0!
0#
0M
#925
1!
1#
1M
b01000001001110011111110101001010 x
b11100101100001111010001101000011 2
b11100101100001111010001101000011 \
#930
0!
0#
0M
#935
1!
1#
1M
b01000001001110011111110101001110 x
b00101111111000110000000011100000 2
b00101111111000110000000011100000 \
#940
0!
0#
0M
#945
1!
1#
1M
b01000001001110011111110101010010 x
b00001101011010110100100011010010 2
b00001101011010110100100011010010 \
#950
0!
0#
0M
#955
1!
1#
1M
b01000001001110011111110101010110 x
b10010001011101010110111000010101 2
b10010001011101010110111000010101 \
#960
0!
0#
0M
#965
1!
1#
1M
b01000001001110011111110101011010 x
b00100001001010000010111110010001 2
b00100001001010000010111110010001 \
#970
0!
0#
0M
#975
1!
1#
1M
b01000001001110011111110101011110 x
b01001101010000110001011001110110 2
b01001101010000110001011001110110 \
#980
0!
0#
0M
#985
1!
1#
1M
b01000001001110011111110101100010 x
b01000010000000101111100000101010 2
b01000010000000101111100000101010 \
#990
0!
0#
0M
#995
1!
1#
1M
b01000001001110011111110101100110 x
b10001000000000100000101101100001 2
b10001000000000100000101101100001 \
#1000
0!
0#
0M
#1005
1!
1#
1M
b01000001001110011111110101101010 x
b11100011011111111111010010010101 2
b11100011011111111111010010010101 \
#1010
0!
0#
0M
#1015
1!
1#
1M
b01000001001110011111110101101110 x
b00000110000110111010011010101010 2
b00000110000110111010011010101010 \
#1020
0!
0#
0M
#1025
1!
1#
1M
b01000001001110011111110101110010 x
b01011000011110001001100101101100 2
14
1^
b01011000011110001001100101101100 \
#1030
0!
0#
0M
#1035
1!
1#
1M
b01000001001110011111110101110110 x
b00000000000000000000000000000000 2
b0000 1
b0000 3
04
0^
05
0_
b00000000000000000000000000000000 \
b0000 [
b0000 ]
#1040
0!
0#
0M
#1045
1!
1#
1M
1c
19
b0100 a
b0100 7
#1050
0!
0#
0M
#1055
1!
1#
1M
1:
1d
#1060
0!
0#
0M
#1065
1!
1#
1M
0c
09
0:
0d
b0010 ;
b11100001010010000011010110111011 <
b1100 =
b010 >
b01 ?
b00 @
b0000 A
b000 B
0C
0m
0D
0n
1E
1o
b0010 e
b11100001010010000011010110111011 f
b1100 g
b010 h
b01 i
b00 j
b0000 k
b000 l
#1070
0!
0#
0M
#1075
1!
1#
1M
0`
06
1p
1F
b11100001010010000011010110111011 ""
b1100 "#
b010 "$
b01 "%
b0010 "!
b00 "&
b000 "(
b0000 "'
#1080
0!
0#
0M
#1085
1!
1#
1M
b01011110011001010110000111110011 r
b01011110011001010110000111110011 H
1t
1J
b0010 q
b0010 G
0E
0o
b0000 ;
b00000000000000000000000000000000 <
b0000 =
b000 >
b00 ?
b0000 e
b00000000000000000000000000000000 f
b0000 g
b000 h
b00 i
#1090
0!
0#
0M
#1095
1!
1#
1M
1K
1u
b11100001010010000011010110111111 ""
#1100
0!
0#
0M
#1105
1!
1#
1M
b11100001010010000011010111000011 ""
#1110
0!
0#
0M
#1115
1!
1#
1M
b00100111100001000111111011010111 r
b00100111100001000111111011010111 H
b11100001010010000011010111000111 ""
#1120
0!
0#
0M
#1125
1!
1#
1M
b11110110110011110101000100100000 r
b11110110110011110101000100100000 H
b11100001010010000011010111001011 ""
#1130
0!
0#
0M
#1135
1!
1#
1M
b10010110000011011010110101000100 r
b10010110000011011010110101000100 H
b11100001010010000011010111001111 ""
#1140
0!
0#
0M
#1145
1!
1#
1M
b11100010110100010000111011010011 r
b11100010110100010000111011010011 H
b11100001010010000011010111010011 ""
#1150
0!
0#
0M
#1155
1!
1#
1M
b10100100110100011001000110100111 r
b10100100110100011001000110100111 H
b11100001010010000011010111010111 ""
#1160
0!
0#
0M
#1165
1!
1#
1M
b11011011001000100111001100001100 r
b11011011001000100111001100001100 H
b11100001010010000011010111011011 ""
#1170
0!
0#
0M
#1175
1!
1#
1M
b11001111000000011110010011100110 r
b11001111000000011110010011100110 H
b11100001010010000011010111011111 ""
#1180
0!
0#
0M
#1185
1!
1#
1M
b00000100001011100000001111100111 r
b00000100001011100000001111100111 H
b11100001010010000011010111100011 ""
#1190
0!
0#
0M
#1195
1!
1#
1M
b11001001110100101000011101010000 r
b11001001110100101000011101010000 H
b11100001010010000011010111100111 ""
#1200
0!
0#
0M
#1205
1!
1#
1M
b00001111100001001100010001001111 r
b00001111100001001100010001001111 H
b11100001010010000011010111101011 ""
#1210
0!
0#
0M
#1215
1!
1#
1M
b00011101011101101001011001011110 r
b00011101011101101001011001011110 H
1s
1I
b11100001010010000011010111101111 ""
#1220
0!
0#
0M
#1225
1!
1#
1M
0t
0J
b0000 q
b0000 G
b00000000000000000000000000000000 r
b00000000000000000000000000000000 H
0s
0I
0K
0u
b1000 ;
b01100010001100001101001101101110 <
b1011 =
b010 >
b01 ?
1E
1o
b1000 e
b01100010001100001101001101101110 f
b1011 g
b010 h
b01 i
#1230
0!
0#
0M
#1235
1!
1#
1M
b01100010001100001101001101101110 ""
b1011 "#
b1000 "!
0E
0o
b0000 ;
b00000000000000000000000000000000 <
b0000 =
b000 >
b00 ?
b0000 e
b00000000000000000000000000000000 f
b0000 g
b000 h
b00 i
#1240
0!
0#
0M
#1245
1!
1#
1M
b01011111100011010101000010110000 r
b01011111100011010101000010110000 H
1t
1J
b1000 q
b1000 G
#1250
0!
0#
0M
#1255
1!
1#
1M
1K
1u
b01100010001100001101001101110010 ""
#1260
0!
0#
0M
#1265
1!
1#
1M
b01100010001100001101001101110110 ""
#1270
0!
0#
0M
#1275
1!
1#
1M
b00100000011100010000001100001111 r
b00100000011100010000001100001111 H
b01100010001100001101001101111010 ""
#1280
0!
0#
0M
#1285
1!
1#
1M
b01010000001101011110111000101100 r
b01010000001101011110111000101100 H
b01100010001100001101001101111110 ""
#1290
0!
0#
0M
#1295
1!
1#
1M
b01101101110001101101010000101010 r
b01101101110001101101010000101010 H
b01100010001100001101001110000010 ""
#1300
0!
0#
0M
#1305
1!
1#
1M
b11111100011101101001001010010001 r
b11111100011101101001001010010001 H
b01100010001100001101001110000110 ""
#1310
0!
0#
0M
#1315
1!
1#
1M
b01001101100111010001100000111010 r
b01001101100111010001100000111010 H
b01100010001100001101001110001010 ""
#1320
0!
0#
0M
#1325
1!
1#
1M
b10101101101100100001100010001001 r
b10101101101100100001100010001001 H
b01100010001100001101001110001110 ""
#1330
0!
0#
0M
#1335
1!
1#
1M
b11110001011000100110011111100111 r
b11110001011000100110011111100111 H
b01100010001100001101001110010010 ""
#1340
0!
0#
0M
#1345
1!
1#
1M
b00010110100000000010000110001011 r
b00010110100000000010000110001011 H
b01100010001100001101001110010110 ""
#1350
0!
0#
0M
#1355
1!
1#
1M
b00010010101001001011110101111010 r
b00010010101001001011110101111010 H
b01100010001100001101001110011010 ""
#1360
0!
0#
0M
#1365
1!
1#
1M
b01110111011010110010111100100101 r
b01110111011010110010111100100101 H
1s
1I
b01100010001100001101001110011110 ""
#1370
0!
0#
0M
#1375
1!
1#
1M
0t
0J
b0000 q
b0000 G
b00000000000000000000000000000000 r
b00000000000000000000000000000000 H
0s
0I
0K
0u
b0101 ;
b10110011000000000000010101000001 <
b1101 =
b010 >
b01 ?
1E
1o
b0101 e
b10110011000000000000010101000001 f
b1101 g
b010 h
b01 i
#1380
0!
0#
0M
#1385
1!
1#
1M
b10110011000000000000010101000001 ""
b1101 "#
b0101 "!
0E
0o
b0000 ;
b00000000000000000000000000000000 <
b0000 =
b000 >
b00 ?
b0000 e
b00000000000000000000000000000000 f
b0000 g
b000 h
b00 i
#1390
0!
0#
0M
#1395
1!
1#
1M
b10011100101100010110010001011111 r
b10011100101100010110010001011111 H
1t
1J
b0101 q
b0101 G
#1400
0!
0#
0M
#1405
1!
1#
1M
1K
1u
b10110011000000000000010101000101 ""
#1410
0!
0#
0M
#1415
1!
1#
1M
b10110011000000000000010101001001 ""
#1420
0!
0#
0M
#1425
1!
1#
1M
b01000110100101011100101000000001 r
b01000110100101011100101000000001 H
b10110011000000000000010101001101 ""
#1430
0!
0#
0M
#1435
1!
1#
1M
b00001111000011100101000011011000 r
b00001111000011100101000011011000 H
b10110011000000000000010101010001 ""
#1440
0!
0#
0M
#1445
1!
1#
1M
b01110001010111000101101101110011 r
b01110001010111000101101101110011 H
b10110011000000000000010101010101 ""
#1450
0!
0#
0M
#1455
1!
1#
1M
b01110001010100011110101111110100 r
b01110001010100011110101111110100 H
b10110011000000000000010101011001 ""
#1460
0!
0#
0M
#1465
1!
1#
1M
b10010111011111010100100101000010 r
b10010111011111010100100101000010 H
b10110011000000000000010101011101 ""
#1470
0!
0#
0M
#1475
1!
1#
1M
b11000000101010111101111111001010 r
b11000000101010111101111111001010 H
b10110011000000000000010101100001 ""
#1480
0!
0#
0M
#1485
1!
1#
1M
b01001010011110100000111001110111 r
b01001010011110100000111001110111 H
b10110011000000000000010101100101 ""
#1490
0!
0#
0M
#1495
1!
1#
1M
b11100001111011110011101100110100 r
b11100001111011110011101100110100 H
b10110011000000000000010101101001 ""
#1500
0!
0#
0M
#1505
1!
1#
1M
b00001111010010010010010110100010 r
b00001111010010010010010110100010 H
b10110011000000000000010101101101 ""
#1510
0!
0#
0M
#1515
1!
1#
1M
b11000000101011010100100110101101 r
b11000000101011010100100110101101 H
b10110011000000000000010101110001 ""
#1520
0!
0#
0M
#1525
1!
1#
1M
b00011000111000100111100001110101 r
b00011000111000100111100001110101 H
b10110011000000000000010101110101 ""
#1530
0!
0#
0M
#1535
1!
1#
1M
b00010111100100100111111100111011 r
b00010111100100100111111100111011 H
1s
1I
b10110011000000000000010101111001 ""
#1540
0!
0#
0M
#1545
1!
1#
1M
0t
0J
b0000 q
b0000 G
b00000000000000000000000000000000 r
b00000000000000000000000000000000 H
0s
0I
0K
0u
b0010 ;
b00110110100011100011110000010010 <
b1110 =
b010 >
b01 ?
1E
1o
b0010 e
b00110110100011100011110000010010 f
b1110 g
b010 h
b01 i
#1550
0!
0#
0M
#1555
1!
1#
1M
b00110110100011100011110000010010 ""
b1110 "#
b0010 "!
0E
0o
b0000 ;
b00000000000000000000000000000000 <
b0000 =
b000 >
b00 ?
b0000 e
b00000000000000000000000000000000 f
b0000 g
b000 h
b00 i
#1560
0!
0#
0M
#1565
1!
1#
1M
b11000111000011101110010000001110 r
b11000111000011101110010000001110 H
1t
1J
b0010 q
b0010 G
#1570
0!
0#
0M
#1575
1!
1#
1M
1K
1u
b00110110100011100011110000010110 ""
#1580
0!
0#
0M
#1585
1!
1#
1M
b00110110100011100011110000011010 ""
#1590
0!
0#
0M
#1595
1!
1#
1M
b11111111111001100010111011111010 r
b11111111111001100010111011111010 H
b00110110100011100011110000011110 ""
#1600
0!
0#
0M
